,StatsNZTerritory,RentalAffordability%,Metadata,FirstHomeBuyerAffordability%,,Earthquake Risk,,MeningococcalRatesper1000,,RheumaticFeverRatesper1000,,SchoolSuspensionRatePer1000 ,,StillBirths%,,ChildMortality%,,MedianRents,,HomicidesPer10000,,CrimeLevel,,RoadFatalitiesPerCapita,,NCEAbreachesPerCapita,,NCEAlevel2%,,"""Wiredness""",,ComputersInHomesSupportPerCapita,,Mean Annual Sunshine hours,,mean total annual rain (mm),,mean minimum daily mean temperature,,mean maximum daily mean temperature,,mean seasonal temperature range,
Best,,min,,min,,max,,min,,min,,min,,min,,min,,min,,min,,min,,min,,min,,SKIP,,max,,max,,max,,min,,max,,max,,min,
SOURCE,,http://www.mbie.govt.nz/publications-research/research/research-index?topic=housing-and-property&type=Data,,http://www.interest.co.nz/property/home-loan-affordability,,http://www.stuff.co.nz/national/68421102/major-changes-to-earthquake-strengthening-rules,,,,,,http://www.educationcounts.govt.nz/indicators/main/student-engagement-participation/Stand-downs-suspensions-exclusions-expulsions,,http://www.health.govt.nz/publication/new-zealand-maternity-clinical-indicators-2014,,,,,,www.police.govt.nz,,www.police.govt.nz,,Road Fatalities NZTA,,,,http://www.educationcounts.govt.nz/find-school/school/qualifications/ncea-level-2?school=189&district=37&region=8,,,,http://computersinhomes.org.nz/wp-content/uploads/sites/2/2014/03/2014CiH_halfyear_PRINT1_lowres.pdf,,cliflo.niwa.co.nz,,cliflo.niwa.co.nz,,en.wikipedia.org/wiki,,en.wikipedia.org/wiki,,calculated from data in: en.wikipedia.org/wiki,
Source Note,,,,,,,,,,,,,,,,,,,,,,,,,,,,,,,,,,,,,,,,,,,
Auckland,76,35.1%,,43.3%,,1,,1.58,,2.64,,3.64,,4.95,,3.0,,428,,0.20,,770,,3.3,,0.02%,,to come from Mike,,1,,0.05,,2062.6,,1092,,10.9,,19.7,,8.8,
Blenheim,56,30.2%,,22.9%,Nelson used as proxy for Blenheim,3,,1.42,,0,,5.52,,2.89,,2.9,,286,,0.40,,818,,9.2,,0.02%,,,,0,,0.14,,2149.2,Grassmere Saltworks (nearest up-to-date),549.7,Grassmere Saltworks (nearest up-to-date),7,,18,,11,
Christchurch,60,29.5%,,22.7%,,3,,2.00,,0.2,,2.75,,6.54,,3.8,,390,,1.00,,2622,,4.4,,0.01%,,,,0,,0.12,,2141.4,,593.8,,5.7,,17.1,,11.4,
Dunedin,71,28.8%,,12.7%,,1,,1.62,,0,,3.25,,5.27,,1.5,,280,,0.20,,655,,10.0,,0.01%,,,,1,,0.22,,1583,,662,,6.6,,15.3,,8.7,
Gisborne,28,26.3%,,14.5%,,3,,2.14,,17.09,,5.87,,7.4,,3.7,,262,,1.10,,1466,,13.7,,0.01%,,,,0,,0.22,,2219.2,,1036,,9.7,,19.2,,9.5,
Hamilton,16,27.9%,,25.7%,,2,,1.35,,5.13,,4.14,,4.89,,4.0,,310,,0.20,,1147,,18.4,,0.02%,,,,2,,0.17,,2001.3,,1199,,8.9,,18.8,,9.9,
Hastings,30,26.3%,,17.0%,,3,,1.29,,3.86,,3.75,,6.78,,4.7,,295,,0.30,,1055,,10.9,,0.01%,,,,0,,0.20,,2042,,786.2,,8.8,,19.7,,10.9,
Invercargill,75,20.5%,,10.3%,,2,,1.62,,0,,3.58,,3.51,,2.4,,222,,0.20,,680,,3.9,,0.01%,,,,0,,0.31,,1681.1,,1148.8,,5.3,,14.2,,8.9,
Kapiti,43,25.3%,,22.9%,,3,,3.03,,3.03,,3.09,,3.49,,2.0,,350,,0.10,,646,,6.1,,0.03%,,,,0,,0.17,,2056.9,Paraparaumu,1009,Paraparaumu,8.5,Wellington proxi,16.8,Wellington proxi,8.3,Wellington proxi
Napier,31,26.3%,,16.9%,,3,,1.29,,3.86,,4.80,,6.78,,4.7,,300,,0.30,,1055,,8.7,,0.00%,,,,0,,0.20,,2264.6,,786.2,,9.4,,19.5,,10.1,
Nelson,52,30.2%,,22.9%,,2,,1.42,,0,,4.45,,2.89,,2.9,,320,,0.30,,828,,6.5,,0.02%,,,,0,,0.14,,2472,,959.4,,7.2,,17.9,,10.7,
New Plymouth,33,26.5%,,19.3%,,2,,5.44,,1.81,,3.60,,9.25,,2.5,,320,,0.10,,661,,9.4,,0.01%,,,,1,,0.26,,2196.3,,1465,,9.5,,18,,8.5,
Palmerston North,40,25.3%,Manawatu-Whanganui statistic used as proxy for PN,14.6%,,3,,1.77,,1.77,,5.37,,5.44,,4.2,,280,,0.20,,864,,18.7,,0.01%,,,,0,,0.17,,1749.9,,969,,8.6,,18.3,,9.7,
Rotorua,24,33.2%,,14.3%,,2,,4.85,,5.82,,7.44,,4.9,,3.7,,250,,0.00,,1240,,13.8,,0.00%,,,,0,,0.13,,2132.4,,1467,,7.8,,17.9,,10.1,
Tauranga,23,33.2%,,31.1%,,2,,2.36,,1.41,,2.57,,3.67,,3.7,,340,,0.20,,945,,13.1,,0.01%,,,,2,,0.13,,2219,,1293,,10.2,,19.6,,9.4,
Timaru,64,29.5%,,16.8%,,2,,5.31,,0,,5.83,,3.16,,6.4,,233,,0.10,,587,,15.9,,0.01%,,,,0,,0.00,,1945.6,,550.7,,5,,15.9,,10.9,
Whanganui,37,25.3%,Manawatu-Whanganui statistic used as proxy for Whanganui,6.7%,,2,,1.60,,0,,4.17,,5.46,,4.4,,200,,0.40,,838,,9.5,,0.00%,,,,4,,0.72,,2003.8,,920.5,,9.5,,18.5,,9,
Wellington,47,28.3%,,21.2%,,3,,3.03,,2.72,,1.30,,4.51,,1.7,,400,,0.15,,1442,,5.8,,0.00%,,,,0,,0.07,,2110.4,,1248.7,,8.5,,16.8,,8.3,
Whangarei,2,33.1%,,15.6%,,1,,1.90,,8.84,,4.73,,7.67,,4.9,,290,,0.40,,977,,15.6,,0.01%,,,,0,,0.34,,1896.8,,1540.4,,11.6,,20.2,,8.6,
,,,,,,,,,,,,,,,,,,,,,,,,,,,,,,,,,,,,,,,,,,,
Category,,Shelter,,Shelter,,,,Basic Medical Care,,Basic Medical Care,,Knowledge Access,,Health/Wellness,,Health/Wellness,,Shelter,,Personal Safety,,Personal Safety,,Personal Safety,,Knowledge Access,,Knowledge Access,,Info/Comms Access,,Info/Comms Access,,Climate,,Climate,,Climate,,Climate,,Climate,
,,,,,,,,Incidence of 3rd World Diseases,,Incidence of 3rd World Diseases,,,,,,,,,,,,,,,,,,,,,,,,,,,,,,,,,